%TF.GenerationSoftware,KiCad,Pcbnew,8.0.0-8.0.0-1~ubuntu20.04.1*%
%TF.CreationDate,2024-03-10T18:08:08+01:00*%
%TF.ProjectId,plantPotV2,706c616e-7450-46f7-9456-322e6b696361,rev?*%
%TF.SameCoordinates,Original*%
%TF.FileFunction,Soldermask,Bot*%
%TF.FilePolarity,Negative*%
%FSLAX46Y46*%
G04 Gerber Fmt 4.6, Leading zero omitted, Abs format (unit mm)*
G04 Created by KiCad (PCBNEW 8.0.0-8.0.0-1~ubuntu20.04.1) date 2024-03-10 18:08:08*
%MOMM*%
%LPD*%
G01*
G04 APERTURE LIST*
G04 Aperture macros list*
%AMHorizOval*
0 Thick line with rounded ends*
0 $1 width*
0 $2 $3 position (X,Y) of the first rounded end (center of the circle)*
0 $4 $5 position (X,Y) of the second rounded end (center of the circle)*
0 Add line between two ends*
20,1,$1,$2,$3,$4,$5,0*
0 Add two circle primitives to create the rounded ends*
1,1,$1,$2,$3*
1,1,$1,$4,$5*%
%AMRotRect*
0 Rectangle, with rotation*
0 The origin of the aperture is its center*
0 $1 length*
0 $2 width*
0 $3 Rotation angle, in degrees counterclockwise*
0 Add horizontal line*
21,1,$1,$2,0,0,$3*%
G04 Aperture macros list end*
%ADD10C,2.500000*%
%ADD11R,1.700000X1.700000*%
%ADD12O,1.700000X1.700000*%
%ADD13C,1.600000*%
%ADD14O,1.600000X1.600000*%
%ADD15C,1.500000*%
%ADD16RotRect,1.700000X1.700000X220.000000*%
%ADD17HorizOval,1.700000X0.000000X0.000000X0.000000X0.000000X0*%
%ADD18O,1.200000X1.900000*%
%ADD19C,1.450000*%
%ADD20HorizOval,1.600000X0.000000X0.000000X0.000000X0.000000X0*%
%ADD21RotRect,1.700000X1.700000X45.000000*%
%ADD22HorizOval,1.700000X0.000000X0.000000X0.000000X0.000000X0*%
G04 APERTURE END LIST*
D10*
%TO.C,H3*%
X241300000Y-215900000D03*
%TD*%
D11*
%TO.C,J3*%
X121930000Y-137199998D03*
D12*
X121930000Y-139739998D03*
X121930000Y-142279997D03*
%TD*%
D13*
%TO.C,R2*%
X262939340Y-191560660D03*
X265060660Y-189439340D03*
%TD*%
%TO.C,R1*%
X130810000Y-167640000D03*
D14*
X130810000Y-154940000D03*
%TD*%
D13*
%TO.C,C2*%
X209630000Y-220345000D03*
X212130000Y-220345000D03*
%TD*%
%TO.C,C7*%
X191750000Y-220000000D03*
X194250000Y-220000000D03*
%TD*%
%TO.C,C6*%
X142500000Y-188750000D03*
X142500000Y-186250000D03*
%TD*%
D15*
%TO.C,Y1*%
X233680000Y-205105000D03*
X230229319Y-201654319D03*
%TD*%
D10*
%TO.C,H4*%
X158750000Y-215900000D03*
%TD*%
D11*
%TO.C,J2*%
X199400000Y-66675000D03*
D12*
X201940000Y-66675000D03*
X204480000Y-66675000D03*
X207020000Y-66675000D03*
%TD*%
D13*
%TO.C,C3*%
X194230000Y-224155000D03*
X191730000Y-224155000D03*
%TD*%
%TO.C,C5*%
X234567588Y-196748122D03*
X236335355Y-194980355D03*
%TD*%
%TO.C,C4*%
X241112054Y-203098122D03*
X242879821Y-201330355D03*
%TD*%
D16*
%TO.C,J4*%
X132805360Y-195026498D03*
D17*
X131172679Y-193080746D03*
X129540000Y-191134992D03*
X127907318Y-189189239D03*
X126274638Y-187243486D03*
X124641957Y-185297733D03*
%TD*%
D18*
%TO.C,J1*%
X197000000Y-238500000D03*
D19*
X198000000Y-235800000D03*
X203000000Y-235800000D03*
D18*
X204000000Y-238500000D03*
%TD*%
D13*
%TO.C,R3*%
X258239872Y-186735128D03*
D20*
X267220128Y-177754872D03*
%TD*%
D21*
%TO.C,J5*%
X139837236Y-162223560D03*
D22*
X138041185Y-164019611D03*
X141633287Y-164019611D03*
X139837236Y-165815662D03*
X143429338Y-165815662D03*
X141633287Y-167611714D03*
%TD*%
D10*
%TO.C,H2*%
X158750000Y-76200000D03*
%TD*%
D13*
%TO.C,C1*%
X201930000Y-73105000D03*
X201930000Y-75605000D03*
%TD*%
D10*
%TO.C,H1*%
X241300000Y-76200000D03*
%TD*%
M02*
